<?xml version="1.0" encoding="UTF-8" standalone="no"?>
<!-- Created with Inkscape (http://www.inkscape.org/) -->

<svg
   xmlns:dc="http://purl.org/dc/elements/1.1/"
   xmlns:cc="http://creativecommons.org/ns#"
   xmlns:rdf="http://www.w3.org/1999/02/22-rdf-syntax-ns#"
   xmlns:svg="http://www.w3.org/2000/svg"
   xmlns="http://www.w3.org/2000/svg"
   xmlns:sodipodi="http://sodipodi.sourceforge.net/DTD/sodipodi-0.dtd"
   xmlns:inkscape="http://www.inkscape.org/namespaces/inkscape"
   width="63.947067mm"
   height="70.784843mm"
   viewBox="0 0 63.947067 70.784843"
   version="1.1"
   id="svg8"
   inkscape:version="0.92.5 (2060ec1f9f, 2020-04-08)"
   sodipodi:docname="logo.svg">
  <defs
     id="defs2" />
  <sodipodi:namedview
     id="base"
     pagecolor="#ffffff"
     bordercolor="#666666"
     borderopacity="1.0"
     inkscape:pageopacity="0.0"
     inkscape:pageshadow="2"
     inkscape:zoom="0.24748737"
     inkscape:cx="-1082.5995"
     inkscape:cy="380.73666"
     inkscape:document-units="mm"
     inkscape:current-layer="layer1"
     showgrid="false"
     fit-margin-top="3"
     fit-margin-left="3"
     fit-margin-right="3"
     fit-margin-bottom="3"
     inkscape:window-width="1920"
     inkscape:window-height="1009"
     inkscape:window-x="0"
     inkscape:window-y="0"
     inkscape:window-maximized="1"
     inkscape:snap-global="false" />
  <metadata
     id="metadata5">
    <rdf:RDF>
      <cc:Work
         rdf:about="">
        <dc:format>image/svg+xml</dc:format>
        <dc:type
           rdf:resource="http://purl.org/dc/dcmitype/StillImage" />
        <dc:title></dc:title>
      </cc:Work>
    </rdf:RDF>
  </metadata>
  <g
     inkscape:label="Calque 1"
     inkscape:groupmode="layer"
     id="layer1"
     transform="translate(-48.04906,-90.207483)">
    <path
       style="fill:#000000;stroke-width:0.17638889"
       d="m 59.52554,150.00588 c -0.388055,-0.0307 -0.780962,-0.12996 -0.873125,-0.22049 -0.09216,-0.0905 -0.340413,-0.1646 -0.551667,-0.1646 -0.211252,0 -0.484395,-0.12086 -0.606986,-0.26857 -0.123181,-0.14842 -0.362921,-0.22412 -0.53592,-0.16921 -0.172166,0.0546 -0.367108,0.0119 -0.433203,-0.0951 -0.06609,-0.10695 -0.291056,-0.2701 -0.499914,-0.36257 -0.208857,-0.0925 -0.617865,-0.3199 -0.908907,-0.5054 -0.291042,-0.1855 -0.649251,-0.34307 -0.796021,-0.35016 -0.146769,-0.007 -0.345207,-0.19148 -0.440972,-0.40977 -0.09577,-0.21828 -0.352712,-0.47522 -0.570993,-0.57099 -0.218282,-0.0958 -0.396875,-0.23933 -0.396875,-0.31902 0,-0.0797 -0.251327,-0.45765 -0.558504,-0.83989 -2.537244,-3.15726 -1.160851,-7.97949 2.322393,-8.13656 2.469427,-0.11135 4.845993,2.94233 3.86927,4.97167 -0.02335,0.0485 -0.05339,0.16757 -0.06677,0.26459 -0.05142,0.37297 -1.031651,1.66476 -1.189311,1.56732 -0.09129,-0.0564 -0.299884,0.0181 -0.463545,0.16554 -0.163661,0.14747 -0.515847,0.3226 -0.782635,0.38918 -0.66158,0.16511 -0.612044,0.43647 0.264583,1.44937 1.573329,1.81791 3.633091,3.38354 3.925439,2.98373 0.117971,-0.16134 0.325556,-0.29334 0.4613,-0.29334 0.135742,0 0.345946,-0.15875 0.467118,-0.35278 0.121172,-0.19402 0.301895,-0.35277 0.401606,-0.35277 0.231394,0 2.814329,-2.5669 2.814329,-2.79686 0,-0.0948 0.06751,-0.19881 0.150025,-0.23115 0.264042,-0.10348 1.035042,-1.45964 1.164232,-2.04785 0.06869,-0.31272 0.184538,-0.56859 0.257452,-0.56859 0.07291,0 0.241775,-0.21828 0.375252,-0.48507 0.133477,-0.26679 0.340497,-0.60504 0.460047,-0.75168 0.305138,-0.37428 1.297158,-3.39406 1.297158,-3.94864 0,-0.25248 0.08863,-0.45905 0.196961,-0.45905 0.10833,0 0.157574,-0.15062 0.109432,-0.33472 -0.04814,-0.18409 0.0985,-0.97699 0.325872,-1.762 0.432784,-1.49421 0.751397,-3.83606 0.866642,-6.36995 0.03751,-0.82462 0.08338,-1.4993 0.101946,-1.4993 0.06874,0 0.200007,-2.3408 0.21279,-3.79463 0.01007,-1.14586 -0.05945,-1.61245 -0.2935,-1.96965 -0.28672,-0.43759 -0.287348,-0.47892 -0.0096,-0.63433 0.33733,-0.18878 0.652426,-2.68461 0.572853,-4.53751 -0.025,-0.58208 -0.0014,-1.1377 0.05246,-1.23472 0.05385,-0.097 0.116602,-0.7717 0.139452,-1.4993 0.04834,-1.53941 0.111135,-2.16695 0.361825,-3.61597 0.100703,-0.58208 0.183557,-1.39099 0.18412,-1.79758 5.29e-4,-0.40658 0.08581,-0.79164 0.189434,-0.85569 0.103629,-0.064 0.146994,-0.22439 0.09637,-0.35632 -0.05063,-0.13193 0.09124,-0.77874 0.315245,-1.43736 0.224013,-0.65862 0.417165,-1.25786 0.429227,-1.33164 0.01206,-0.0738 0.143402,-0.36903 0.291865,-0.65613 0.148463,-0.28709 0.252272,-0.58392 0.230684,-0.65961 -0.02159,-0.0757 0.05978,-0.31621 0.180819,-0.53449 0.121038,-0.21828 0.172184,-0.39688 0.113658,-0.39688 -0.05853,0 0.05774,-0.23053 0.258378,-0.51229 0.200636,-0.28177 0.36479,-0.60521 0.36479,-0.71877 0,-0.28837 1.424727,-2.434062 2.11061,-3.178662 0.312776,-0.33955 0.700061,-0.77611 0.860633,-0.97014 0.160574,-0.19402 0.609452,-0.57339 0.997507,-0.84304 0.388056,-0.26964 1.023056,-0.71328 1.411111,-0.98586 1.293536,-0.90861 5.147025,-1.77734 5.481717,-1.2358 0.05244,0.0849 0.438138,0.15429 0.857095,0.15429 0.461918,0 0.848171,0.10414 0.981327,0.26458 0.120772,0.14552 0.29527,0.26458 0.387774,0.26458 0.398146,0 2.292205,1.66849 2.617179,2.30549 0.194482,0.38122 0.415551,0.69312 0.491262,0.69312 0.306515,0 0.857606,1.50974 0.781129,2.13993 -0.04515,0.37209 0.0069,0.69291 0.124078,0.76536 0.121218,0.0749 0.140287,0.206522 0.04775,0.329522 -0.08474,0.11263 -0.254674,0.56197 -0.377633,0.99853 -0.224349,0.79654 -0.961097,1.76389 -1.343409,1.76389 -0.112466,0 -0.435107,0.11505 -0.716982,0.25566 -0.400445,0.19977 -0.68597,0.21655 -1.305918,0.0767 -0.436383,-0.0984 -0.973991,-0.14472 -1.194686,-0.1029 -0.315872,0.0599 -0.380714,0.0113 -0.304699,-0.22821 0.05311,-0.16734 -0.025,-0.40514 -0.173577,-0.52845 -0.239337,-0.19863 -0.505762,-1.20164 -0.51592,-1.94227 -0.0076,-0.55387 0.600281,-1.731332 1.119265,-2.168032 0.674269,-0.56736 0.672477,-0.63979 -0.03249,-1.31361 -0.863247,-0.82511 -1.448826,-1.48363 -1.873645,-2.10702 -0.453536,-0.66554 -1.304251,-0.65394 -2.227396,0.0304 -0.291042,0.21574 -0.693819,0.44429 -0.895061,0.50788 -0.474405,0.14992 -2.632033,2.32401 -2.634966,2.65507 -0.0012,0.13958 -0.0553,0.30683 -0.120139,0.37167 -0.06484,0.0648 -0.07518,0.22919 -0.02298,0.36522 0.05541,0.14439 -0.01512,0.24734 -0.16942,0.24734 -0.145383,0 -0.315837,0.2052 -0.378783,0.45601 -0.06295,0.2508 -0.264557,0.617122 -0.44802,0.814052 -0.183463,0.19692 -0.387664,0.68625 -0.453782,1.0874 -0.06612,0.40114 -0.184769,0.80981 -0.263671,0.90816 -0.0789,0.0983 -0.183812,0.49523 -0.23313,0.88195 -0.04932,0.38672 -0.168039,1.01041 -0.263821,1.38599 -0.09578,0.37557 -0.133617,0.78849 -0.08407,0.91759 0.04954,0.12911 0.02497,0.33776 -0.0546,0.46367 -0.149421,0.23645 -0.167954,0.37848 -0.284434,2.17983 -0.03802,0.58793 -0.125988,1.16097 -0.19549,1.27343 -0.0695,0.11246 -0.113775,0.6633 -0.09838,1.22409 0.05528,2.01348 -0.136959,8.28726 -0.260036,8.48641 -0.06912,0.11184 -0.06185,0.31709 0.01616,0.45611 0.07801,0.13902 0.09718,0.95324 0.04259,1.80938 -0.09261,1.45251 -0.07192,1.58681 0.309395,2.00799 0.408643,0.45137 0.408643,0.45137 -0.09609,0.82454 -0.472129,0.34906 -0.512924,0.47943 -0.631467,2.01807 -0.0697,0.9047 -0.163274,1.88304 -0.207939,2.17408 -0.04467,0.29104 -0.115621,1.0451 -0.157678,1.67569 -0.04206,0.63059 -0.158688,1.5434 -0.259184,2.02847 -0.480439,2.31899 -0.57269,2.88802 -0.607106,3.74481 -0.02038,0.50743 -0.09153,0.97706 -0.158106,1.04364 -0.06657,0.0666 -0.121045,0.34702 -0.121045,0.62321 0,0.27618 -0.07368,0.63999 -0.163742,0.80845 -0.09006,0.16845 -0.343743,0.86191 -0.563746,1.541 -0.220002,0.6791 -0.503505,1.36004 -0.630008,1.5132 -0.126502,0.15316 -0.230004,0.4905 -0.230004,0.74965 0,0.25915 -0.07831,0.47118 -0.174022,0.47118 -0.09571,0 -0.29368,0.28638 -0.439928,0.63641 -0.221294,0.52963 -1.340074,2.22668 -1.673567,2.53859 -0.05186,0.0485 -0.201907,0.29733 -0.333431,0.55295 -0.131526,0.25561 -0.761685,0.81123 -1.400353,1.23472 -1.547944,1.0264 -1.448522,0.96776 -2.172108,1.2812 -0.350437,0.15181 -0.736462,0.39566 -0.857834,0.54191 -0.121369,0.14624 -0.289415,0.22341 -0.373431,0.17148 -0.08402,-0.0519 -0.310003,-0.0102 -0.502192,0.0926 -0.357781,0.19147 -2.53947,0.31447 -3.802995,0.21439 z"
       id="path836"
       inkscape:connector-curvature="0" />
    <path
       style="fill:#000000;stroke-width:0.17638889"
       d="m 59.52554,150.00588 c -5.681224,-0.0387 -12.309473,-8.77542 -5.667386,-12.28795 5.005918,-0.83326 6.170156,6.13622 2.437923,8.20484 2.875663,6.47272 9.68621,0.10211 10.494143,-4.54637 5.808802,-13.22197 0.233905,-28.80585 7.084434,-41.711828 2.538394,-4.86019 9.066182,-8.610477 13.999894,-4.710821 5.847133,2.726064 1.0533,11.903789 -3.291945,6.488899 4.2234,-5.72374 -4.96703,-9.029809 -6.907289,-3.029063 -4.65931,10.524773 -1.438767,22.279273 -3.974204,33.219313 -0.535292,6.92056 -2.673816,15.31922 -9.94698,17.9987 -1.361057,0.43725 -2.813744,0.54362 -4.22859,0.37428 z"
       id="path838"
       inkscape:connector-curvature="0" />
    <path
       style="fill:#000000;stroke-width:0.17638889"
       d="m 104.86169,152.75998 c -3.85004,3.86578 -13.86102,3.4798 -13.147692,-3.5302 3.186097,-5.61954 8.238135,-0.41851 8.515742,3.62864 7.56002,0.45299 4.90376,-8.3973 2.61783,-12.46971 -6.091583,-12.0282 -19.605748,-18.43287 -25.00944,-30.90555 -2.363061,-5.22111 -1.266553,-13.556457 5.331427,-14.765342 5.493193,-3.741106 9.747506,8.779762 2.633888,6.529742 -1.3691,-7.161204 -10.674007,-1.284187 -6.239869,3.91582 3.96207,9.8152 14.149568,14.88835 20.141497,23.20944 4.670307,5.4636 10.347847,12.08728 8.168917,19.86843 -0.53665,1.76056 -1.61327,3.33289 -3.0123,4.51873 z"
       id="path840"
       inkscape:connector-curvature="0" />
    <path
       style="fill:#000000;stroke-width:0.17638889"
       d="m 68.625401,154.1854 c -4.719721,0.14611 -10.807803,-3.26849 -9.772247,-8.68953 1.179649,-4.85348 9.60382,-2.15191 7.223785,2.25555 -4.93372,4.14173 4.457507,7.98002 5.918533,2.6213 4.556836,-8.54954 3.152616,-18.61739 1.428979,-27.70885 -0.532061,-7.46829 -2.463693,-15.51963 1.274655,-22.5215 2.034105,-4.523746 7.851458,-7.955501 12.46135,-4.926175 3.944844,1.484057 4.197187,8.818675 -0.858709,8.363065 -3.270624,-1.5519 0.894345,-9.644242 -5.57466,-7.591043 -4.308441,3.196715 -4.457443,9.401313 -4.083139,14.311143 0.683116,7.2098 2.700045,14.22772 2.636016,21.50656 0.492382,6.93445 0.880773,15.35346 -5.046236,20.23916 -1.588324,1.26927 -3.565462,2.07678 -5.608327,2.14032 z"
       id="path842"
       inkscape:connector-curvature="0" />
    <path
       style="fill:#000000;stroke-width:0.17638889"
       d="m 0.07047304,93.924816 c 3.65456996,-1.58016 8.65413996,-1.86605 11.41995996,1.50609 2.24173,2.39208 0.65514,7.102574 -2.92864,6.580754 -3.02509,-0.0508 -4.44761,-3.250784 -3.0451,-5.723594 -0.0837,-2.31944 -4.51048,-2.39357 -5.78473996,-0.76992 -1.64746004,2.01648 -0.93240004,4.811354 -1.01355004,7.212924 0.59430004,7.03444 4.38985,13.24702 8.14883,19.03188 2.19199,2.35948 3.18127,5.53056 5.09618,8.09659 3.33855,5.41245 6.274592,11.92015 4.74716,18.39777 -0.81172,3.77791 -4.14523,7.462 -8.27807,7.00681 -2.41809,-0.18567 -5.25288,-1.52977 -5.84265,-4.0754 -0.29126,-2.14977 2.1059,-4.88312 4.26292,-3.50706 1.30409,1.8076 1.39781,6.17556 4.83465,5.11019 3.37007,-0.87488 2.81156,-5.16506 2.51961,-7.83992 -0.64971,-3.96444 -2.94237,-7.3959 -4.94624,-10.7863 -2.36004,-3.45204 -4.45864,-7.09421 -7.06801,-10.36466 -0.61054,-2.16159 -1.82122996,-3.96104 -2.90453996,-5.88515 C -3.431947,112.8018 -6.266127,107.11909 -5.152637,101.1524 c 0.59809,-3.044634 2.41113,-5.813504 5.22311004,-7.227584 z"
       id="path887"
       inkscape:connector-curvature="0" />
    <path
       inkscape:connector-curvature="0"
       id="path903"
       d="m 15.211153,94.500946 c 3.9412,-0.56548 8.840506,0.47097 10.624205,4.45086 1.535239,2.896634 -1.232156,7.025494 -4.553304,5.581284 -2.905683,-0.84307 -3.438374,-4.30423 -1.435964,-6.322204 0.528056,-2.26008 -3.724047,-3.49358 -5.379807,-2.26133 -2.11899,1.51334 -2.16262,4.397904 -2.8713,6.693964 -1.27298,6.94378 0.75876,13.9348 2.86749,20.5035 1.4958,2.85211 1.61803,6.17167 2.792249,9.15036 1.800794,6.09899 2.925706,13.14917 -0.248449,18.99873 -1.77491,3.43238 -5.95855,6.11229 -9.827,4.58825 -2.28456,-0.81388 -4.66715,-2.85494 -4.56805,-5.46612 0.28324,-2.15084 3.31381,-4.15913 5.034,-2.26513 0.7839,2.08652 -0.2722,6.32593 3.32378,6.20003 3.48154,0.0404 4.06873,-4.24595 4.48913,-6.90365 0.41368,-3.99597 -0.89788,-7.9089 -1.94155,-11.70641 -1.37118,-3.95047 -2.44018,-8.01579 -4.0996,-11.85648 -0.0217,-2.24606 -0.71766,-4.3002 -1.25793,-6.4412 -1.28245,-5.64871 -2.52562,-11.87609 0.115,-17.34129 1.37629,-2.780884 3.85255,-4.976774 6.9371,-5.603164 z"
       style="fill:#000000;stroke-width:0.17638889"
       inkscape:transform-center-x="-8.9549544"
       inkscape:transform-center-y="-25.543533" />
    <path
       inkscape:transform-center-y="-22.663346"
       inkscape:transform-center-x="-15.269253"
       style="fill:#000000;stroke-width:0.17638889"
       d="m 29.692276,99.041626 c 3.951223,0.49057 8.40569,2.778624 9.080305,7.087454 0.71969,3.19835 -3.035853,6.4544 -5.860477,4.18785 -2.581817,-1.57734 -2.18581,-5.05679 0.276694,-6.47732 1.103668,-2.04175 -2.674558,-4.349764 -4.596036,-3.59616 -2.442313,0.903 -3.242776,3.67462 -4.530173,5.70359 -3.053759,6.36484 -2.931472,13.64408 -2.623874,20.5361 0.693344,3.14503 -0.06146,6.37995 0.288339,9.56256 0.133985,6.35788 -0.634209,13.45579 -5.234581,18.26507 -2.61487,2.845 -7.3559,4.33073 -10.68758,1.84326 -1.99022,-1.38587 -3.75239,-3.98153 -2.97028,-6.47479 0.83874,-2.00072 4.29069,-3.1416 5.45243,-0.86198 0.20776,2.21921 -1.92575,6.03183 1.57683,6.85576 3.34844,0.9543 5.04188,-3.02689 6.14622,-5.48057 1.449687,-3.74664 1.212998,-7.86674 1.20443,-11.80504 -0.28434,-4.17199 -0.24694,-8.37535 -0.83824,-12.5172 0.56956,-2.17275 0.43813,-4.3376 0.47975,-6.54532 0.247739,-5.78716 0.685517,-12.12231 4.670077,-16.70102 2.058983,-2.32122 5.025444,-3.788844 8.166166,-3.582244 z"
       id="path905"
       inkscape:connector-curvature="0" />
    <rect
       y="76.401268"
       x="-124.30808"
       height="48.464806"
       width="64.14064"
       id="rect923"
       style="fill:#ffffff;fill-opacity:1;stroke:#000000;stroke-width:1.85300004;stroke-linecap:round;stroke-linejoin:round;stroke-miterlimit:5.19999981;stroke-dasharray:none;stroke-dashoffset:0;stroke-opacity:1;paint-order:normal" />
    <path
       inkscape:connector-curvature="0"
       id="path919"
       d="m -114.90376,84.303113 c 3.65457,-1.58016 8.65414,-1.86605 11.41997,1.50609 2.24173,2.39208 0.65514,7.102574 -2.92865,6.580754 -3.02509,-0.0508 -4.44761,-3.250784 -3.0451,-5.723594 -0.0837,-2.31944 -4.51048,-2.39357 -5.78474,-0.76992 -1.64746,2.01648 -0.9324,4.811354 -1.01355,7.212924 0.5943,7.034443 4.38985,13.247023 8.14883,19.031883 2.19199,2.35948 3.18128,5.53056 5.09619,8.09659 3.338547,5.41245 6.27459,11.92015 4.747158,18.39777 -0.811721,3.77791 -4.145228,7.462 -8.278078,7.00681 -2.41809,-0.18567 -5.25288,-1.52977 -5.84265,-4.0754 -0.29126,-2.14977 2.1059,-4.88312 4.26292,-3.50706 1.30409,1.8076 1.39781,6.17556 4.83466,5.11019 3.370068,-0.87488 2.81156,-5.16506 2.51961,-7.83992 -0.64971,-3.96444 -2.94237,-7.3959 -4.94625,-10.7863 -2.36004,-3.45204 -4.45864,-7.09421 -7.06801,-10.36466 -0.61054,-2.16159 -1.82123,-3.96104 -2.90454,-5.88515 -2.72019,-5.11402 -5.55437,-10.796733 -4.44088,-16.763423 0.59809,-3.044634 2.41113,-5.813504 5.22311,-7.227584 z"
       style="fill:#000000;stroke-width:0.17638889" />
    <path
       style="fill:#000000;stroke-width:0.17638889"
       d="m -77.862085,84.303113 c 3.65457,-1.58016 8.654141,-1.86605 11.419962,1.50609 2.24173,2.39208 0.65514,7.102574 -2.928641,6.580754 -3.02509,-0.0508 -4.447611,-3.250784 -3.0451,-5.723594 -0.0837,-2.31944 -4.510481,-2.39357 -5.784741,-0.76992 -1.647457,2.01648 -0.932397,4.811354 -1.013547,7.212924 0.594297,7.034443 4.389847,13.247023 8.148828,19.031883 2.19199,2.35948 3.18127,5.53056 5.096181,8.09659 3.338549,5.41245 6.274592,11.92015 4.74716,18.39777 -0.811721,3.77791 -4.14523,7.462 -8.278071,7.00681 -2.41809,-0.18567 -5.252881,-1.52977 -5.842651,-4.0754 -0.29126,-2.14977 2.105901,-4.88312 4.262921,-3.50706 1.30409,1.8076 1.39781,6.17556 4.834651,5.11019 3.37007,-0.87488 2.81156,-5.16506 2.51961,-7.83992 -0.64971,-3.96444 -2.94237,-7.3959 -4.946241,-10.7863 -2.36004,-3.45204 -4.45864,-7.09421 -7.068011,-10.36466 -0.61054,-2.16159 -1.82123,-3.96104 -2.90454,-5.88515 -2.720187,-5.11402 -5.554364,-10.796733 -4.440877,-16.763423 0.59809,-3.044634 2.41113,-5.813504 5.223107,-7.227584 z"
       id="path925"
       inkscape:connector-curvature="0" />
    <path
       style="fill:#000000;stroke-width:0.17638889"
       d="m -96.382921,84.303113 c 3.65457,-1.58016 8.654137,-1.86605 11.419962,1.50609 2.24173,2.39208 0.65514,7.102574 -2.928645,6.580754 -3.02509,-0.0508 -4.447607,-3.250784 -3.0451,-5.723594 -0.0837,-2.31944 -4.510477,-2.39357 -5.784737,-0.76992 -1.647457,2.01648 -0.932397,4.811354 -1.013547,7.212924 0.594297,7.034443 4.389847,13.247023 8.148824,19.031883 2.19199,2.35948 3.181274,5.53056 5.096185,8.09659 3.338549,5.41245 6.274592,11.92015 4.74716,18.39777 -0.811721,3.77791 -4.14523,7.462 -8.278075,7.00681 -2.41809,-0.18567 -5.252877,-1.52977 -5.842647,-4.0754 -0.29126,-2.14977 2.105897,-4.88312 4.262917,-3.50706 1.30409,1.8076 1.39781,6.17556 4.834655,5.11019 3.37007,-0.87488 2.81156,-5.16506 2.51961,-7.83992 -0.64971,-3.96444 -2.94237,-7.3959 -4.946245,-10.7863 -2.36004,-3.45204 -4.45864,-7.09421 -7.068007,-10.36466 -0.61054,-2.16159 -1.82123,-3.96104 -2.90454,-5.88515 -2.720187,-5.11402 -5.554379,-10.796733 -4.440889,-16.763423 0.5981,-3.044634 2.411142,-5.813504 5.223119,-7.227584 z"
       id="path927"
       inkscape:connector-curvature="0" />
    <rect
       style="fill:#ffffff;fill-opacity:1;stroke:#000000;stroke-width:1.85300004;stroke-linecap:round;stroke-linejoin:round;stroke-miterlimit:5.19999981;stroke-dasharray:none;stroke-dashoffset:0;stroke-opacity:1;paint-order:normal"
       id="rect921"
       width="64.14064"
       height="48.464806"
       x="-124.30808"
       y="101.27209" />
    <rect
       style="fill:#ffffff;fill-opacity:1;stroke:#000000;stroke-width:1.85300004;stroke-linecap:round;stroke-linejoin:round;stroke-miterlimit:5.19999981;stroke-dasharray:none;stroke-dashoffset:0;stroke-opacity:1;paint-order:normal"
       id="rect929"
       width="64.14064"
       height="48.464806"
       x="-230.14151"
       y="76.401268" />
    <path
       inkscape:connector-curvature="0"
       id="path933"
       d="m -202.7455,84.303113 c 3.65457,-1.58016 8.65414,-1.86605 11.41997,1.50609 2.24173,2.39208 0.65514,7.102574 -2.92865,6.580754 -3.02509,-0.0508 -4.44761,-3.250784 -3.0451,-5.723594 -0.0837,-2.31944 -4.51048,-2.39357 -5.78474,-0.76992 -1.64746,2.01648 -0.9324,4.811354 -1.01355,7.212924 0.5943,7.034443 4.38985,13.247023 8.14883,19.031883 2.19199,2.35948 3.18128,5.53056 5.09619,8.09659 3.33855,5.41245 6.27459,11.92015 4.74716,18.39777 -0.81172,3.77791 -4.14523,7.462 -8.27808,7.00681 -2.41809,-0.18567 -5.25288,-1.52977 -5.84265,-4.0754 -0.29126,-2.14977 2.1059,-4.88312 4.26292,-3.50706 1.30409,1.8076 1.39781,6.17556 4.83466,5.11019 3.37007,-0.87488 2.81156,-5.16506 2.51961,-7.83992 -0.64971,-3.96444 -2.94237,-7.3959 -4.94625,-10.7863 -2.36004,-3.45204 -4.45864,-7.09421 -7.06801,-10.36466 -0.61054,-2.16159 -1.82123,-3.96104 -2.90454,-5.88515 -2.72019,-5.11402 -5.55437,-10.796733 -4.44088,-16.763423 0.59809,-3.044634 2.41113,-5.813504 5.22311,-7.227584 z"
       style="fill:#000000;stroke-width:0.17638889" />
    <rect
       y="101.27209"
       x="-230.14151"
       height="48.464806"
       width="64.14064"
       id="rect937"
       style="fill:#ffffff;fill-opacity:1;stroke:#000000;stroke-width:1.85300004;stroke-linecap:round;stroke-linejoin:round;stroke-miterlimit:5.19999981;stroke-dasharray:none;stroke-dashoffset:0;stroke-opacity:1;paint-order:normal" />
  </g>
</svg>
